<?xml version="1.0" encoding="utf-8"?>
<!-- Generator: Adobe Illustrator 22.1.0, SVG Export Plug-In . SVG Version: 6.00 Build 0)  -->
<svg version="1.1" id="Layer_1" xmlns="http://www.w3.org/2000/svg" xmlns:xlink="http://www.w3.org/1999/xlink" x="0px" y="0px"
	 viewBox="0 0 40 40" style="enable-background:new 0 0 40 40;" xml:space="preserve">
<style type="text/css">
	.st0{fill:#FFFFFF;}
</style>
<title>web</title>
<path class="st0" d="M28.6,27.5c2.1,0,3.9,1.7,3.9,3.9s-1.7,3.9-3.9,3.9c-1,0-2-0.4-2.8-1.1l0,0c-1.5-1.5-1.5-4,0-5.5
	C26.6,27.9,27.6,27.5,28.6,27.5z M10.7,10.7h24.9c0.5,0,0.9,0.4,0.9,0.9V12c0,0.5-0.4,0.9-0.9,0.9c0,0,0,0,0,0H11.3l1.1,4.2h21.2
	c0.5,0,0.9,0.4,0.9,0.9v0.4c0,0.5-0.4,0.9-0.9,0.9H13l0.3,1.2C13.7,22,15,23,16.6,23h15.5c0.5,0,0.9,0.4,0.9,0.9c0,0,0,0,0,0v0.5
	c0,0.5-0.4,0.9-0.9,0.9H16.6c-2.5,0-4.7-1.7-5.4-4.1L8.1,9.5C7.7,8,6.4,7,4.9,7h-3C1.4,7,1,6.6,1,6.1V5.7c0-0.5,0.4-0.9,0.9-0.9h3
	c1.2,0,2.4,0.4,3.4,1.1c1,0.7,1.7,1.8,2,3L10.7,10.7L10.7,10.7z M16.9,27.5c2.1,0,3.9,1.7,3.9,3.9c0,2.1-1.7,3.9-3.9,3.9
	c-1,0-2-0.4-2.8-1.1l0,0c-1.5-1.5-1.5-4,0-5.5C14.9,27.9,15.8,27.5,16.9,27.5L16.9,27.5z M18,30.2c-0.3-0.3-0.7-0.5-1.2-0.5
	c-0.4,0-0.9,0.2-1.2,0.5c-0.3,0.3-0.5,0.7-0.5,1.2c0,0.9,0.7,1.7,1.6,1.7c0.9,0,1.7-0.7,1.7-1.6c0,0,0,0,0,0
	C18.5,31,18.3,30.5,18,30.2z M29.7,30.2c-0.3-0.3-0.7-0.5-1.2-0.5c-0.4,0-0.9,0.2-1.2,0.5C27.1,30.6,27,31,27,31.4
	c0,0.9,0.7,1.6,1.6,1.6c0,0,0,0,0,0c0.4,0,0.9-0.2,1.2-0.5c0.3-0.3,0.5-0.7,0.5-1.2C30.3,31,30.1,30.5,29.7,30.2L29.7,30.2z"/>
</svg>
